…
``` r
dat_nba_points <- summarise(group_by(dat_nba, team), total_points = sum(points))
dat_nba_points <- arrange(dat_nba_points, total_points)
dat_nba_points$team <- factor(dat_nba_points$team, levels = dat_nba_points$team, ordered = TRUE)
dat_nba_points
```

    ## # A tibble: 30 x 2
    ##    team  total_points
    ##    <ord>        <int>
    ##  1 SAC           6360
    ##  2 NOP           6597
    ##  3 DAL           6651
    ##  4 LAL           6905
    ##  5 PHI           7299
    ##  6 CHI           7349
    ##  7 ORL           7442
    ##  8 BRK           7855
    ##  9 NYK           8060
    ## 10 CHO           8099
    ## # ... with 20 more rows
…
``` r
dat_nba_eff <- summarise(group_by(dat_nba, team), total_efficiency = sum(efficiency))
dat_nba_eff <- arrange(dat_nba_eff, total_efficiency)
dat_nba_eff$team <- factor(dat_nba_eff$team, levels = dat_nba_eff$team, ordered = TRUE)
dat_nba_eff
```

    ## # A tibble: 30 x 2
    ##    team  total_efficiency
    ##    <ord>            <dbl>
    ##  1 LAL               131.
    ##  2 ORL               133.
    ##  3 DET               136.
    ##  4 CHI               139.
    ##  5 MIN               141.
    ##  6 CHO               142.
    ##  7 POR               142.
    ##  8 NYK               144.
    ##  9 DAL               145.
    ## 10 UTA               146.
    ## # ... with 20 more rows
…
``` r
# ignoring missed free throws and missed field goals for the dollar efficiency calculation
dollar_eff <- (dat_nba$points + dat_nba$off_rebounds + dat_nba$def_rebounds + dat_nba$assists + dat_nba$steals + dat_nba$blocks - dat_nba$turnovers) / dat_nba$salary 
dat_nba <- mutate(dat_nba, dollar_efficiency=dollar_eff) 

dat_nba_dollar_eff <- summarise(group_by(dat_nba, team), total_dollar_eff = sum(dollar_efficiency))
dat_nba_dollar_eff <- arrange(dat_nba_dollar_eff, total_dollar_eff)
dat_nba_dollar_eff$team <- factor(dat_nba_dollar_eff$team, levels = dat_nba_dollar_eff$team, ordered = TRUE)
dat_nba_dollar_eff
```

    ## # A tibble: 30 x 2
    ##    team  total_dollar_eff
    ##    <ord>            <dbl>
    ##  1 WAS              2163.
    ##  2 DET              2407.
    ##  3 POR              2602.
    ##  4 CHO              2674.
    ##  5 BOS              2923.
    ##  6 LAC              2991.
    ##  7 SAC              3075.
    ##  8 TOR              3259.
    ##  9 IND              3287.
    ## 10 ORL              3454.
    ## # ... with 20 more rows
…
